<?xml version="1.0" encoding="UTF-8"?>
<session version="1.0">
<refactoring comment="Rename resource &apos;Proxy/ProxyApp/ciphers2.csv&apos; to &apos;ciphers.csv&apos;" description="Rename resource &apos;ciphers2.csv&apos;" flags="7" id="org.eclipse.ltk.core.refactoring.rename.resource" input="ProxyApp/ciphers2.csv" name="ciphers.csv" stamp="1440261075260" updateReferences="true"/>
</session>